dump.vcd
$date
	Tue Apr 14 22:55:25 2020
$end
$version
	Icarus Verilog
$end
$timescale
	100ps
$end
$scope module testbench $end
$var reg 1 ! clk $end
$var reg 1 " rst $end
$scope module _cpu $end
$var wire 1 # clk $end
$var wire 2 $ control_mux_for_PC [1:0] $end
$var wire 6 % funct [5:0] $end
$var wire 1 & is_I_type $end
$var wire 1 ' is_J_type $end
$var wire 1 ( is_R_type $end
$var wire 1 ) is_alu_zero $end
$var wire 1 * is_write_from_mem $end
$var wire 1 + is_write_mem $end
$var wire 1 , is_write_reg $end
$var wire 6 - opcode [5:0] $end
$var wire 6 . opcode_alu [5:0] $end
$var wire 1 / rst $end
$scope module _data_path_cpu $end
$var wire 26 0 ADDR [25:0] $end
$var wire 32 1 EX_MEM_curr_inst_plus_one_plus_IMM [31:0] $end
$var wire 1 ) EX_MEM_is_alu_zero $end
$var wire 32 2 EX_MEM_out_alu [31:0] $end
$var wire 32 3 EX_MEM_rdata2 [31:0] $end
$var wire 32 4 ID_EX_curr_inst_plus_one [31:0] $end
$var wire 32 5 ID_EX_expand_ADDR [31:0] $end
$var wire 32 6 ID_EX_expand_IMM [31:0] $end
$var wire 32 7 ID_EX_rdata1 [31:0] $end
$var wire 32 8 ID_EX_rdata2 [31:0] $end
$var wire 32 9 IF_ID_curr_inst_plus_one [31:0] $end
$var wire 32 : IF_ID_instraction [31:0] $end
$var wire 16 ; IMM [15:0] $end
$var wire 32 < MEM_WB_out_alu [31:0] $end
$var wire 32 = MEM_WB_out_memory [31:0] $end
$var wire 32 > WB_data_for_write [31:0] $end
$var wire 1 # clk $end
$var wire 2 ? control_mux_for_PC [1:0] $end
$var wire 32 @ curr_inst [31:0] $end
$var wire 32 A curr_inst_plus_one [31:0] $end
$var wire 32 B curr_inst_plus_one_plus_IMM [31:0] $end
$var wire 3 C curr_state [2:0] $end
$var wire 32 D expand_ADDR [31:0] $end
$var wire 32 E expand_IMM [31:0] $end
$var wire 6 F funct [5:0] $end
$var wire 32 G in_PC [31:0] $end
$var wire 32 H instraction [31:0] $end
$var wire 1 I is_EXMEM_open $end
$var wire 1 J is_IDEX_open $end
$var wire 1 K is_IFID_open $end
$var wire 1 & is_I_type $end
$var wire 1 ' is_J_type $end
$var wire 1 L is_MEMWB_open $end
$var wire 1 ( is_R_type $end
$var wire 1 M is_alu_zero $end
$var wire 1 N is_load_PC $end
$var wire 1 * is_write_from_mem $end
$var wire 1 + is_write_mem $end
$var wire 1 , is_write_reg $end
$var wire 6 O opcode [5:0] $end
$var wire 6 P opcode_alu [5:0] $end
$var wire 32 Q out_alu [31:0] $end
$var wire 32 R out_memory [31:0] $end
$var wire 32 S out_mux_for_alu [31:0] $end
$var wire 5 T out_mux_for_wnum [4:0] $end
$var wire 5 U rd [4:0] $end
$var wire 32 V rdata1 [31:0] $end
$var wire 32 W rdata2 [31:0] $end
$var wire 5 X rs [4:0] $end
$var wire 1 / rst $end
$var wire 5 Y rt [4:0] $end
$var wire 5 Z shamt [4:0] $end
$scope module _mux_for_PC $end
$var wire 96 [ in [95:0] $end
$var wire 2 \ n [1:0] $end
$var wire 32 ] out [31:0] $end
$scope begin gen_block[0] $end
$upscope $end
$scope begin gen_block[1] $end
$upscope $end
$scope begin gen_block[2] $end
$upscope $end
$upscope $end
$scope module _adder_plus_one $end
$var wire 1 # clk $end
$var wire 1 ^ load $end
$var wire 32 _ out [31:0] $end
$var wire 1 / rst $end
$var wire 32 ` x [31:0] $end
$var wire 32 a y [31:0] $end
$upscope $end
$scope module _PC $end
$var wire 1 # clk $end
$var wire 32 b in [31:0] $end
$var wire 1 N load $end
$var wire 1 / rst $end
$var reg 32 c out [31:0] $end
$upscope $end
$scope module _inst $end
$var wire 32 d curr_command [31:0] $end
$var wire 32 e out_data [31:0] $end
$var wire 1 / rst $end
$upscope $end
$scope module _IF_ID_curr_inst_plus_one_launch $end
$var wire 1 # clk $end
$var wire 32 f in [31:0] $end
$var wire 1 K load $end
$var wire 1 / rst $end
$var reg 32 g out [31:0] $end
$upscope $end
$scope module _IF_ID_instraction_launch $end
$var wire 1 # clk $end
$var wire 32 h in [31:0] $end
$var wire 1 K load $end
$var wire 1 / rst $end
$var reg 32 i out [31:0] $end
$upscope $end
$scope module _mux_for_regs $end
$var wire 10 j in [9:0] $end
$var wire 1 & n $end
$var wire 5 k out [4:0] $end
$scope begin gen_block[0] $end
$upscope $end
$scope begin gen_block[1] $end
$upscope $end
$upscope $end
$scope module _regs $end
$var wire 1 # clk $end
$var wire 1 l is_load_in_reg0 $end
$var wire 1 m is_load_in_reg1 $end
$var wire 1 n is_load_in_reg2 $end
$var wire 1 o is_load_in_reg3 $end
$var wire 32 p out_reg0 [31:0] $end
$var wire 32 q out_reg1 [31:0] $end
$var wire 32 r out_reg2 [31:0] $end
$var wire 32 s out_reg3 [31:0] $end
$var wire 32 t rdata1 [31:0] $end
$var wire 32 u rdata2 [31:0] $end
$var wire 5 v rnum1 [4:0] $end
$var wire 5 w rnum2 [4:0] $end
$var wire 1 / rst $end
$var wire 32 x wdata [31:0] $end
$var wire 5 y wnum [4:0] $end
$var wire 1 , write $end
$scope module _demux $end
$var wire 1 , in $end
$var wire 2 z n [1:0] $end
$var wire 4 { out [3:0] $end
$scope begin demux_block $end
$var integer 32 | k [31:0] $end
$upscope $end
$scope begin assign_block[0] $end
$upscope $end
$scope begin assign_block[1] $end
$upscope $end
$scope begin assign_block[2] $end
$upscope $end
$scope begin assign_block[3] $end
$upscope $end
$upscope $end
$scope module _reg1 $end
$var wire 1 # clk $end
$var wire 32 } in [31:0] $end
$var wire 1 m load $end
$var wire 1 / rst $end
$var reg 32 ~ out [31:0] $end
$upscope $end
$scope module _reg2 $end
$var wire 1 # clk $end
$var wire 32 !" in [31:0] $end
$var wire 1 n load $end
$var wire 1 / rst $end
$var reg 32 "" out [31:0] $end
$upscope $end
$scope module _reg3 $end
$var wire 1 # clk $end
$var wire 32 #" in [31:0] $end
$var wire 1 o load $end
$var wire 1 / rst $end
$var reg 32 $" out [31:0] $end
$upscope $end
$scope module _mux1 $end
$var wire 128 %" in [127:0] $end
$var wire 2 &" n [1:0] $end
$var wire 32 '" out [31:0] $end
$scope begin gen_block[0] $end
$upscope $end
$scope begin gen_block[1] $end
$upscope $end
$scope begin gen_block[2] $end
$upscope $end
$scope begin gen_block[3] $end
$upscope $end
$upscope $end
$scope module _mux2 $end
$var wire 128 (" in [127:0] $end
$var wire 2 )" n [1:0] $end
$var wire 32 *" out [31:0] $end
$scope begin gen_block[0] $end
$upscope $end
$scope begin gen_block[1] $end
$upscope $end
$scope begin gen_block[2] $end
$upscope $end
$scope begin gen_block[3] $end
$upscope $end
$upscope $end
$upscope $end
$scope module _ID_EX_curr_inst_plus_one_launch $end
$var wire 1 # clk $end
$var wire 32 +" in [31:0] $end
$var wire 1 J load $end
$var wire 1 / rst $end
$var reg 32 ," out [31:0] $end
$upscope $end
$scope module _ID_EX_rdata1_launch $end
$var wire 1 # clk $end
$var wire 32 -" in [31:0] $end
$var wire 1 J load $end
$var wire 1 / rst $end
$var reg 32 ." out [31:0] $end
$upscope $end
$scope module _ID_EX_rdata2_launch $end
$var wire 1 # clk $end
$var wire 32 /" in [31:0] $end
$var wire 1 J load $end
$var wire 1 / rst $end
$var reg 32 0" out [31:0] $end
$upscope $end
$scope module _ID_EX_expand_IMM_launch $end
$var wire 1 # clk $end
$var wire 32 1" in [31:0] $end
$var wire 1 J load $end
$var wire 1 / rst $end
$var reg 32 2" out [31:0] $end
$upscope $end
$scope module _ID_EX_expand_ADDR_launch $end
$var wire 1 # clk $end
$var wire 32 3" in [31:0] $end
$var wire 1 J load $end
$var wire 1 / rst $end
$var reg 32 4" out [31:0] $end
$upscope $end
$scope module _mux_for_alu $end
$var wire 64 5" in [63:0] $end
$var wire 1 & n $end
$var wire 32 6" out [31:0] $end
$scope begin gen_block[0] $end
$upscope $end
$scope begin gen_block[1] $end
$upscope $end
$upscope $end
$scope module _alu $end
$var wire 1 # clk $end
$var wire 32 7" in1 [31:0] $end
$var wire 32 8" in2 [31:0] $end
$var wire 6 9" opcode [5:0] $end
$var wire 1 / rst $end
$var wire 1 M zero $end
$var reg 32 :" out [31:0] $end
$upscope $end
$scope module _adder_plus_IMM $end
$var wire 1 # clk $end
$var wire 1 ;" load $end
$var wire 32 <" out [31:0] $end
$var wire 1 / rst $end
$var wire 32 =" x [31:0] $end
$var wire 32 >" y [31:0] $end
$upscope $end
$scope module _EX_MEM_curr_inst_plus_one_plus_IMM_launch $end
$var wire 1 # clk $end
$var wire 32 ?" in [31:0] $end
$var wire 1 I load $end
$var wire 1 / rst $end
$var reg 32 @" out [31:0] $end
$upscope $end
$scope module _EX_MEM_is_alu_zero_launch $end
$var wire 1 # clk $end
$var wire 1 M in $end
$var wire 1 I load $end
$var wire 1 / rst $end
$var reg 1 A" out $end
$upscope $end
$scope module _EX_MEM_is_out_alu_launch $end
$var wire 1 # clk $end
$var wire 32 B" in [31:0] $end
$var wire 1 I load $end
$var wire 1 / rst $end
$var reg 32 C" out [31:0] $end
$upscope $end
$scope module _EX_MEM_rdata2_launch $end
$var wire 1 # clk $end
$var wire 32 D" in [31:0] $end
$var wire 1 I load $end
$var wire 1 / rst $end
$var reg 32 E" out [31:0] $end
$upscope $end
$scope module _memory $end
$var wire 5 F" addr [4:0] $end
$var wire 1 # clk $end
$var wire 32 G" idata [31:0] $end
$var wire 1 H" is_load_in_reg0 $end
$var wire 1 I" is_load_in_reg1 $end
$var wire 1 J" is_load_in_reg2 $end
$var wire 1 K" is_load_in_reg3 $end
$var wire 1 L" is_load_in_reg4 $end
$var wire 1 M" is_load_in_reg5 $end
$var wire 1 N" is_load_in_reg6 $end
$var wire 1 O" is_load_in_reg7 $end
$var wire 32 P" odata [31:0] $end
$var wire 32 Q" out_reg0 [31:0] $end
$var wire 32 R" out_reg1 [31:0] $end
$var wire 32 S" out_reg2 [31:0] $end
$var wire 32 T" out_reg3 [31:0] $end
$var wire 32 U" out_reg4 [31:0] $end
$var wire 32 V" out_reg5 [31:0] $end
$var wire 32 W" out_reg6 [31:0] $end
$var wire 32 X" out_reg7 [31:0] $end
$var wire 1 / rst $end
$var wire 1 + write $end
$scope module _demux $end
$var wire 1 + in $end
$var wire 3 Y" n [2:0] $end
$var wire 8 Z" out [7:0] $end
$scope begin demux_block $end
$var integer 32 [" k [31:0] $end
$upscope $end
$scope begin assign_block[0] $end
$upscope $end
$scope begin assign_block[1] $end
$upscope $end
$scope begin assign_block[2] $end
$upscope $end
$scope begin assign_block[3] $end
$upscope $end
$scope begin assign_block[4] $end
$upscope $end
$scope begin assign_block[5] $end
$upscope $end
$scope begin assign_block[6] $end
$upscope $end
$scope begin assign_block[7] $end
$upscope $end
$upscope $end
$scope module _reg0 $end
$var wire 1 # clk $end
$var wire 32 \" in [31:0] $end
$var wire 1 H" load $end
$var wire 1 / rst $end
$var reg 32 ]" out [31:0] $end
$upscope $end
$scope module _reg1 $end
$var wire 1 # clk $end
$var wire 32 ^" in [31:0] $end
$var wire 1 I" load $end
$var wire 1 / rst $end
$var reg 32 _" out [31:0] $end
$upscope $end
$scope module _reg2 $end
$var wire 1 # clk $end
$var wire 32 `" in [31:0] $end
$var wire 1 J" load $end
$var wire 1 / rst $end
$var reg 32 a" out [31:0] $end
$upscope $end
$scope module _reg3 $end
$var wire 1 # clk $end
$var wire 32 b" in [31:0] $end
$var wire 1 K" load $end
$var wire 1 / rst $end
$var reg 32 c" out [31:0] $end
$upscope $end
$scope module _reg4 $end
$var wire 1 # clk $end
$var wire 32 d" in [31:0] $end
$var wire 1 L" load $end
$var wire 1 / rst $end
$var reg 32 e" out [31:0] $end
$upscope $end
$scope module _reg5 $end
$var wire 1 # clk $end
$var wire 32 f" in [31:0] $end
$var wire 1 M" load $end
$var wire 1 / rst $end
$var reg 32 g" out [31:0] $end
$upscope $end
$scope module _reg6 $end
$var wire 1 # clk $end
$var wire 32 h" in [31:0] $end
$var wire 1 N" load $end
$var wire 1 / rst $end
$var reg 32 i" out [31:0] $end
$upscope $end
$scope module _reg7 $end
$var wire 1 # clk $end
$var wire 32 j" in [31:0] $end
$var wire 1 O" load $end
$var wire 1 / rst $end
$var reg 32 k" out [31:0] $end
$upscope $end
$scope module _mux $end
$var wire 256 l" in [255:0] $end
$var wire 3 m" n [2:0] $end
$var wire 32 n" out [31:0] $end
$scope begin gen_block[0] $end
$upscope $end
$scope begin gen_block[1] $end
$upscope $end
$scope begin gen_block[2] $end
$upscope $end
$scope begin gen_block[3] $end
$upscope $end
$scope begin gen_block[4] $end
$upscope $end
$scope begin gen_block[5] $end
$upscope $end
$scope begin gen_block[6] $end
$upscope $end
$scope begin gen_block[7] $end
$upscope $end
$upscope $end
$upscope $end
$scope module MEM_WB_out_alu_launch $end
$var wire 1 # clk $end
$var wire 32 o" in [31:0] $end
$var wire 1 L load $end
$var wire 1 / rst $end
$var reg 32 p" out [31:0] $end
$upscope $end
$scope module MEM_WB_out_memory_launch $end
$var wire 1 # clk $end
$var wire 32 q" in [31:0] $end
$var wire 1 L load $end
$var wire 1 / rst $end
$var reg 32 r" out [31:0] $end
$upscope $end
$scope module _mux_for_wdata $end
$var wire 64 s" in [63:0] $end
$var wire 1 * n $end
$var wire 32 t" out [31:0] $end
$scope begin gen_block[0] $end
$upscope $end
$scope begin gen_block[1] $end
$upscope $end
$upscope $end
$scope module _conveer_control_fsm $end
$var wire 1 # clk $end
$var wire 32 u" curr_inst [31:0] $end
$var wire 1 / rst $end
$var reg 3 v" curr_state [2:0] $end
$var reg 1 w" is_EXMEM_open $end
$var reg 1 x" is_IDEX_open $end
$var reg 1 y" is_IFID_open $end
$var reg 1 z" is_MEMWB_open $end
$var reg 1 {" is_load_PC $end
$var reg 3 |" next_state [2:0] $end
$var reg 3 }" prev_state [2:0] $end
$upscope $end
$upscope $end
$scope module _control_path_cpu $end
$var wire 1 # clk $end
$var wire 6 ~" funct [5:0] $end
$var wire 1 ) is_alu_zero $end
$var wire 6 !# opcode [5:0] $end
$var wire 1 / rst $end
$var reg 2 "# control_mux_for_PC [1:0] $end
$var reg 1 ## is_I_type $end
$var reg 1 $# is_J_type $end
$var reg 1 %# is_R_type $end
$var reg 1 &# is_write_from_mem $end
$var reg 1 '# is_write_mem $end
$var reg 1 (# is_write_reg $end
$var reg 6 )# opcode_alu [5:0] $end
$upscope $end
$upscope $end
$upscope $end
$enddefinitions $end
#0
$dumpvars
b0 )#
1(#
0'#
0&#
1%#
0$#
0##
b0 "#
b0 !#
b0 ~"
b0 }"
b1 |"
0{"
0z"
1y"
0x"
0w"
b0 v"
b0 u"
b0 t"
b0 s"
b0 r"
b0 q"
b0 p"
b0 o"
b0 n"
b0 m"
b0 l"
b0 k"
b0 j"
b0 i"
b0 h"
b0 g"
b0 f"
b0 e"
b0 d"
b0 c"
b0 b"
b0 a"
b0 `"
b0 _"
b0 ^"
b0 ]"
b0 \"
b1000 ["
b0 Z"
b0 Y"
b0 X"
b0 W"
b0 V"
b0 U"
b0 T"
b0 S"
b0 R"
b0 Q"
b0 P"
0O"
0N"
0M"
0L"
0K"
0J"
0I"
0H"
b0 G"
b0 F"
b0 E"
b0 D"
b0 C"
b0 B"
0A"
b0 @"
b0 ?"
b0 >"
b0 ="
b0 <"
z;"
b0 :"
b0 9"
b0 8"
b0 7"
b0 6"
b0 5"
b0 4"
b0 3"
b0 2"
b0 1"
b0 0"
b0 /"
b0 ."
b0 -"
b0 ,"
b0 +"
b0 *"
b0 )"
b0 ("
b0 '"
b0 &"
b0 %"
b0 $"
b0 #"
b0 ""
b0 !"
b0 ~
b0 }
b100 |
b1000 {
b0 z
b0 y
b0 x
b0 w
b0 v
b0 u
b0 t
b0 s
b0 r
b0 q
b0 p
0o
0n
0m
1l
b0 k
b0 j
b0 i
b100000000000010000000000000001 h
b0 g
b1 f
b100000000000010000000000000001 e
b0 d
b0 c
b1 b
b1 a
b0 `
b1 _
z^
b1 ]
b0 \
b10000000000000000000000000000000000000000000000000000000000000000 [
b0 Z
b0 Y
b0 X
b0 W
b0 V
b0 U
b0 T
b0 S
b0 R
b0 Q
b0 P
b0 O
0N
1M
0L
1K
0J
0I
b100000000000010000000000000001 H
b1 G
b0 F
b0 E
b0 D
b0 C
b0 B
b1 A
b0 @
b0 ?
b0 >
b0 =
b0 <
b0 ;
b0 :
b0 9
b0 8
b0 7
b0 6
b0 5
b0 4
b0 3
b0 2
b0 1
b0 0
1/
b0 .
b0 -
1,
0+
0*
0)
1(
0'
0&
b0 %
b0 $
1#
1"
1!
$end
#50
0"
0/
0!
0#
#100
1m
0l
b100 {
b100 |
b1 z
b1 T
b1 k
b1 y
b100000 )#
b100000 .
b100000 P
b100000 9"
1##
1&
0%#
0(
b10 |"
1x"
1J
0y"
0K
b1 )"
b10000000000000001 D
b10000000000000001 3"
b10000000000000001 0
b1 E
b1 1"
b1 ;
b1 %
b1 F
b1 ~"
b1 j
b1 Y
b1 w
b1000 -
b1000 O
b1000 !#
b1 v"
b1 C
b100000000000010000000000000001 i
b100000000000010000000000000001 :
b1 g
b1 9
b1 +"
1!
1#
#150
0!
0#
#200
b11 |"
1w"
1I
0x"
0J
b1 :"
0M
b1 Q
b1 B"
b1 S
b1 6"
b1 8"
b1 ,"
b1 4
b1 ="
b1 2"
b10 B
b10 <"
b10 ?"
b1 5"
b1 6
b1 >"
b10000000000000001 4"
b10000000000000000000000000000000000000000000000010000000000000001 [
b10000000000000001 5
b10 v"
b10 C
b1 }"
1!
1#
#250
0!
0#
#300
b100 |"
1z"
1L
0w"
0I
b1000 ["
b1 Y"
b1 m"
b1 F"
b10 }"
b11 v"
b11 C
b1 C"
b1 2
b1 o"
b10 @"
b10000000000000000000000000000001000000000000000010000000000000001 [
b10 1
1!
1#
#350
0!
0#
#400
b101 |"
0z"
0L
b1 >
b1 x
b1 }
b1 !"
b1 #"
b1 t"
b1 p"
b100000000000000000000000000000000 s"
b1 <
b100 v"
b100 C
b11 }"
1!
1#
#450
0!
0#
#500
b0 |"
1{"
1N
b1 W
b1 u
b1 *"
b1 /"
b100 }"
b101 v"
b101 C
b1 ~
b10000000000000000000000000000000000000000000000000000000000000000 ("
b10000000000000000000000000000000000000000000000000000000000000000 %"
b1 q
1!
1#
#550
0!
0#
#600
b1 |"
0{"
0N
1y"
1K
b10 G
b10 ]
b10 b
b1 c
b10101100000000010000000000000000 H
b10101100000000010000000000000000 e
b10101100000000010000000000000000 h
b100000000000000000000000000000001000000000000000010000000000000001 [
b10 A
b10 _
b10 f
b1 @
b1 `
b1 d
b1 u"
b0 v"
b0 C
b101 }"
1!
1#
#650
0!
0#
#700
0m
1I"
b0 {
b100 |
b1000000 Z"
b1000 ["
0(#
0,
1'#
1+
b10 |"
1x"
1J
0y"
0K
b10000000000000000 D
b10000000000000000 3"
b10000000000000000 0
b0 E
b0 1"
b0 ;
b0 %
b0 F
b0 ~"
b101011 -
b101011 O
b101011 !#
b0 }"
b1 v"
b1 C
b10101100000000010000000000000000 i
b10101100000000010000000000000000 :
b10 g
b10 9
b10 +"
1!
1#
#750
0!
0#
#800
b11 |"
1w"
1I
0x"
0J
b0 :"
1M
b0 Q
b0 B"
b0 S
b0 6"
b0 8"
b10 ,"
b10 4
b10 ="
b1 0"
b1 8
b1 D"
b0 2"
b10 B
b10 <"
b10 ?"
b100000000000000000000000000000000 5"
b0 6
b0 >"
b10000000000000000 4"
b100000000000000000000000000000001000000000000000010000000000000000 [
b10000000000000000 5
b10 v"
b10 C
b1 }"
1!
1#
#850
0!
0#
#900
b100 |"
1z"
1L
0w"
0I
1H"
0I"
b10000000 Z"
b1000 ["
b0 Y"
b0 m"
b0 F"
b10 }"
b11 v"
b11 C
b1 E"
b1 3
b1 G"
b1 \"
b1 ^"
b1 `"
b1 b"
b1 d"
b1 f"
b1 h"
b1 j"
b0 C"
b0 2
b0 o"
1A"
1)
1!
1#
#950
0!
0#
#1000
b101 |"
0z"
0L
b1 R
b1 P"
b1 n"
b1 q"
b0 >
b0 x
b0 }
b0 !"
b0 #"
b0 t"
b1 ]"
b100000000000000000000000000000000000000000000000000000000000000000000000000000000000000000000000000000000000000000000000000000000000000000000000000000000000000000000000000000000000000000000000000000000000000000000000000000000 l"
b1 Q"
b0 p"
b0 s"
b0 <
b100 v"
b100 C
b11 }"
1!
1#
#1050
0!
0#
#1100
b0 |"
1{"
1N
b100 }"
b101 v"
b101 C
1!
1#
#1150
0!
0#
#1200
b1 |"
0{"
0N
1y"
1K
b11 G
b11 ]
b11 b
b10 c
b10001100000000100000000000000000 H
b10001100000000100000000000000000 e
b10001100000000100000000000000000 h
b110000000000000000000000000000001000000000000000010000000000000000 [
b11 A
b11 _
b11 f
b10 @
b10 `
b10 d
b10 u"
b0 v"
b0 C
b101 }"
1!
1#
#1250
0!
0#
#1300
1n
0H"
b10 {
b0 Z"
b1000 ["
1(#
1,
0'#
0+
1&#
1*
b10 |"
1x"
1J
0y"
0K
b100 |
b10 z
b10 T
b10 k
b10 y
b0 W
b0 u
b0 *"
b0 /"
b10 )"
b100000000000000000 D
b100000000000000000 3"
b100000000000000000 0
b10 j
b10 Y
b10 w
b100011 -
b100011 O
b100011 !#
b0 }"
b1 v"
b1 C
b10001100000000100000000000000000 i
b10001100000000100000000000000000 :
b11 g
b11 9
b11 +"
1!
1#
#1350
0!
0#
#1400
b11 |"
1w"
1I
0x"
0J
b11 ,"
b11 B
b11 <"
b11 ?"
b11 4
b11 ="
b0 0"
b0 5"
b0 8
b0 D"
b100000000000000000 4"
b110000000000000000000000000000001000000000000000100000000000000000 [
b100000000000000000 5
b10 v"
b10 C
b1 }"
1!
1#
#1450
0!
0#
#1500
b100 |"
1z"
1L
0w"
0I
b10 }"
b11 v"
b11 C
b0 E"
b0 3
b0 G"
b0 \"
b0 ^"
b0 `"
b0 b"
b0 d"
b0 f"
b0 h"
b0 j"
b11 @"
b110000000000000000000000000000001100000000000000100000000000000000 [
b11 1
1!
1#
#1550
0!
0#
#1600
b101 |"
0z"
0L
b1 >
b1 x
b1 }
b1 !"
b1 #"
b1 t"
b1 r"
b1 s"
b1 =
b100 v"
b100 C
b11 }"
1!
1#
#1650
0!
0#
#1700
b0 |"
1{"
1N
b1 W
b1 u
b1 *"
b1 /"
b100 }"
b101 v"
b101 C
b1 ""
b10000000000000000000000000000000100000000000000000000000000000000 ("
b10000000000000000000000000000000100000000000000000000000000000000 %"
b1 r
1!
1#
#1750
0!
0#
#1800
b1 |"
0{"
0N
1y"
1K
b100 G
b100 ]
b100 b
b11 c
b10000010000010000000000000010 H
b10000010000010000000000000010 e
b10000010000010000000000000010 h
b1000000000000000000000000000000001100000000000000100000000000000000 [
b100 A
b100 _
b100 f
b11 @
b11 `
b11 d
b11 u"
b0 v"
b0 C
b101 }"
1!
1#
#1850
0!
0#
#1900
b11 G
b11 ]
b11 b
b0 >
b0 x
b0 }
b0 !"
b0 #"
b0 t"
b1 "#
b1 $
b1 ?
b1 \
b100010 )#
b100010 .
b100010 P
b100010 9"
0(#
0,
0&#
0*
b10 |"
1x"
1J
0y"
0K
0m
0n
b0 {
b100 |
b1 z
b1 T
b1 k
b1 y
b1 V
b1 t
b1 '"
b1 -"
b1 )"
b10 &"
b10000010000000000000010 D
b10000010000000000000010 3"
b10000010000000000000010 0
b10 E
b10 1"
b10 ;
b10 %
b10 F
b10 ~"
b1 j
b1 Y
b1 w
b10 X
b10 v
b100 -
b100 O
b100 !#
b0 }"
b1 v"
b1 C
b10000010000010000000000000010 i
b10000010000010000000000000010 :
b100 g
b100 9
b100 +"
1!
1#
#1950
0!
0#
#2000
b11 |"
1w"
1I
0x"
0J
b10 S
b10 6"
b10 8"
b11111111111111111111111111111111 :"
0M
b11111111111111111111111111111111 Q
b11111111111111111111111111111111 B"
b100 ,"
b100 4
b100 ="
b1 ."
b1 7
b1 7"
b1 0"
b1 8
b1 D"
b10 2"
b110 B
b110 <"
b110 ?"
b100000000000000000000000000000010 5"
b10 6
b10 >"
b10000010000000000000010 4"
b1000000000000000000000000000000001100000000010000010000000000000010 [
b10000010000000000000010 5
b10 v"
b10 C
b1 }"
1!
1#
#2050
0!
0#
#2100
b100 |"
1z"
1L
0w"
0I
b0 "#
b0 $
b0 ?
b0 \
b1000 ["
b0 R
b0 P"
b0 n"
b0 q"
b111 Y"
b111 m"
b100 G
b100 ]
b100 b
b11111 F"
b10 }"
b11 v"
b11 C
b1 E"
b1 3
b1 G"
b1 \"
b1 ^"
b1 `"
b1 b"
b1 d"
b1 f"
b1 h"
b1 j"
b11111111111111111111111111111111 C"
b11111111111111111111111111111111 2
b11111111111111111111111111111111 o"
0A"
0)
b110 @"
b1000000000000000000000000000000011000000000010000010000000000000010 [
b110 1
1!
1#
#2150
0!
0#
#2200
b101 |"
0z"
0L
b11111111111111111111111111111111 >
b11111111111111111111111111111111 x
b11111111111111111111111111111111 }
b11111111111111111111111111111111 !"
b11111111111111111111111111111111 #"
b11111111111111111111111111111111 t"
b11111111111111111111111111111111 p"
b11111111111111111111111111111111 <
b0 r"
b1111111111111111111111111111111100000000000000000000000000000000 s"
b0 =
b100 v"
b100 C
b11 }"
1!
1#
#2250
0!
0#
#2300
b0 |"
1{"
1N
b100 }"
b101 v"
b101 C
1!
1#
#2350
0!
0#
#2400
b1 |"
0{"
0N
1y"
1K
b101 G
b101 ]
b101 b
b100 c
b100000000000110000000000000100 H
b100000000000110000000000000100 e
b100000000000110000000000000100 h
b1010000000000000000000000000000011000000000010000010000000000000010 [
b101 A
b101 _
b101 f
b100 @
b100 `
b100 d
b100 u"
b0 v"
b0 C
b101 }"
1!
1#
#2450
0!
0#
#2500
1o
b11 :"
b11 Q
b11 B"
b1 {
b100000 )#
b100000 .
b100000 P
b100000 9"
1(#
1,
b10 |"
1x"
1J
0y"
0K
b100 |
b11 z
b11 T
b11 k
b11 y
b0 W
b0 u
b0 *"
b0 /"
b0 V
b0 t
b0 '"
b0 -"
b11 )"
b0 &"
b110000000000000100 D
b110000000000000100 3"
b110000000000000100 0
b100 E
b100 1"
b100 ;
b100 %
b100 F
b100 ~"
b11 j
b11 Y
b11 w
b0 X
b0 v
b1000 -
b1000 O
b1000 !#
b0 }"
b1 v"
b1 C
b100000000000110000000000000100 i
b100000000000110000000000000100 :
b101 g
b101 9
b101 +"
1!
1#
#2550
0!
0#
#2600
b11 |"
1w"
1I
0x"
0J
b11111111111111111111111111111111 W
b11111111111111111111111111111111 u
b11111111111111111111111111111111 *"
b11111111111111111111111111111111 /"
b100 S
b100 6"
b100 8"
b100 :"
b100 Q
b100 B"
b11111111111111111111111111111111 $"
b10000000000000000000000000000000111111111111111111111111111111111 ("
b10000000000000000000000000000000111111111111111111111111111111111 %"
b11111111111111111111111111111111 s
b101 ,"
b101 4
b101 ="
b0 ."
b0 7
b0 7"
b0 0"
b0 8
b0 D"
b100 2"
b1001 B
b1001 <"
b1001 ?"
b100 5"
b100 6
b100 >"
b110000000000000100 4"
b1010000000000000000000000000000011000000000000000110000000000000100 [
b110000000000000100 5
b10 v"
b10 C
b1 }"
1!
1#
#2650
0!
0#
#2700
b100 |"
1z"
1L
0w"
0I
b1000 ["
b100 Y"
b100 m"
b100 F"
b10 }"
b11 v"
b11 C
b0 E"
b0 3
b0 G"
b0 \"
b0 ^"
b0 `"
b0 b"
b0 d"
b0 f"
b0 h"
b0 j"
b100 C"
b100 2
b100 o"
b1001 @"
b1010000000000000000000000000000100100000000000000110000000000000100 [
b1001 1
1!
1#
#2750
0!
0#
#2800
b101 |"
0z"
0L
b100 >
b100 x
b100 }
b100 !"
b100 #"
b100 t"
b100 p"
b10000000000000000000000000000000000 s"
b100 <
b100 v"
b100 C
b11 }"
1!
1#
#2850
0!
0#
#2900
b0 |"
1{"
1N
b100 W
b100 u
b100 *"
b100 /"
b100 }"
b101 v"
b101 C
b100 $"
b10000000000000000000000000000000100000000000000000000000000000100 ("
b10000000000000000000000000000000100000000000000000000000000000100 %"
b100 s
1!
1#
#2950
0!
0#
#3000
b1 |"
0{"
0N
1y"
1K
b110 G
b110 ]
b110 b
b101 c
b100000000000110000000000000101 H
b100000000000110000000000000101 e
b100000000000110000000000000101 h
b1100000000000000000000000000000100100000000000000110000000000000100 [
b110 A
b110 _
b110 f
b101 @
b101 `
b101 d
b101 u"
b0 v"
b0 C
b101 }"
1!
1#
#3050
0!
0#
#3100
b10 |"
1x"
1J
0y"
0K
b110000000000000101 D
b110000000000000101 3"
b110000000000000101 0
b101 E
b101 1"
b101 ;
b101 %
b101 F
b101 ~"
b0 }"
b1 v"
b1 C
b100000000000110000000000000101 i
b100000000000110000000000000101 :
b110 g
b110 9
b110 +"
1!
1#
#3150
0!
0#
#3200
b11 |"
1w"
1I
0x"
0J
b101 :"
b101 Q
b101 B"
b101 S
b101 6"
b101 8"
b110 ,"
b110 4
b110 ="
b100 0"
b100 8
b100 D"
b101 2"
b1011 B
b1011 <"
b1011 ?"
b10000000000000000000000000000000101 5"
b101 6
b101 >"
b110000000000000101 4"
b1100000000000000000000000000000100100000000000000110000000000000101 [
b110000000000000101 5
b10 v"
b10 C
b1 }"
1!
1#
#3250
0!
0#
#3300
b100 |"
1z"
1L
0w"
0I
b1000 ["
b101 Y"
b101 m"
b101 F"
b10 }"
b11 v"
b11 C
b100 E"
b100 3
b100 G"
b100 \"
b100 ^"
b100 `"
b100 b"
b100 d"
b100 f"
b100 h"
b100 j"
b101 C"
b101 2
b101 o"
b1011 @"
b1100000000000000000000000000000101100000000000000110000000000000101 [
b1011 1
1!
1#
#3350
0!
0#
